MPLAB ASM30 Listing:  Tst-30-Traps.s 			page 1


   1              	; #Id$
   2              	;	Dummy ISR for traps to make debugging easier
   3              	;
   4              	;	Basically, all this module does is provide a place to send
   5              	;	the processor in the event of a trap. Although these routines
   6              	;	make no attempt to deal with the trap, any of these exceptions
   7              	;	will now cause the processor to hang at a recognizable
   8              	;	location, rather than reset.  Probably no preferable for a
   9              	;	release version, but better for debugging.
  10              	
  11              				.global		__OscillatorFail,__AddressError,__StackError,__MathError
  12              	
  13              	.text
  14              	__OscillatorFail:
  15 000000  00 00 04 				GOTO		.
  15         00 00 00 
  16              	
  17              	__AddressError:
  18 000004  00 00 04 				GOTO		.
  18         00 00 00 
  19              	
  20              	__StackError:
  21 000008  00 00 04 				GOTO		.
  21         00 00 00 
  22              	
  23              	__MathError:
  24 00000c  00 00 04 				GOTO		.
  24         00 00 00 
  25              	
  26              				.end

SECTION INFORMATION:

Section        Length (PC units)   Length (bytes) (dec)
-------        -----------------   --------------------
.text                       0x10            0x18  (24)

TOTAL PROGRAM MEMORY USED (bytes):          0x18  (24)

Section           Alignment Gaps   Length (bytes) (dec)
-------           --------------   --------------------
.data                          0               0  (0)
.bss                           0               0  (0)

   TOTAL DATA MEMORY USED (bytes):             0  (0)
