:020000040000fa
:080000000001040000000000f3
:020000040000fa
:100200000f802000809f2000000188000000000077
:10021000050007000c000700d201020000000000ea
:100220000040da000000fe004440a900806a20007f
:100230000000e0000300320000002000a001880060
:100240004440a80000000600c05b20000100200020
:100250001600370062004000e080480091018800ed
:100260009001ba0062004000e080480091018800df
:100270009002ba0062004000e08048000002eb00fb
:100280006028e10005003a008301e900070033001f
:10029000038009000059eb00040037006128e100e9
:1002a000010032000082eb00050007009101880088
:1002b0001001ba000200e000e6ff3a00000005006d
:1002c000910188008002780062004000e0804800d0
:1002d0003559ba008301e900080032002559ba00f7
:1002e0008301e900050032000400e000f4ff320061
:1002f00015d9ba008301e900f1ff3a0000000600b9
:100300000000fa0085c0bf00624060000004e00009
:10031000fcff3200901080000080fa000000060010
:100320000200fa00004f78000fc2bf006140600079
:100330000004e000fcff32001e00fb00801088007b
:100340000080fa00000006000200fa00000f7800aa
:10035000040037001e007800104078001e0fe800ef
:10036000efff07001e007800104078000004e00056
:10037000f8ff3a000080fa00000006000200fa00d0
:10038000004f780080262800efff07001e4078000d
:10039000e3ff0700805b2800ebff07000080fa0006
:1003a000000006000400fa00f00f2000401588004d
:1003b00050002000e01688000000eb00c016880006
:1003c0000000eb00000888000027270010088800c4
:1003d0008460a9008c60a800000328002008880021
:1003e000c0002000f0168800f00b2000a01088004c
:1003f0000000280060108800004420007010880071
:100400008520a900beff0700000f78001e007800bd
:1004100010079800200420009e009000808f50005c
:1004200015003200200420009e009000808f5000b4
:1004300005003c00100420009e009000808f5000ba
:100440000a00320015003700300420009e009000a2
:10045000808f50000b003200400420009e0090006e
:10046000808f50000a0032000c003700102828004e
:10047000b5ff07000b00370060312800b2ff07000e
:1004800008003700a03a2800afff0700050037003a
:1004900010462800acff0700020037001e0078005d
:1004a000b6ff07008520a900d6ff3700801f78001f
:1004b0000000fa008460a900e01680006f00680068
:1004c000e01688000080fa004f0078000040060027
:020000040000fa
:10000800be050000be050000be050000be050000dc
:10001800be050000be050000be050000be050000cc
:10002800be050000be050000be0500005602000027
:10003800be050000be050000be050000be050000ac
:10004800be050000be050000be050000be0500009c
:10005800be050000be050000be050000be0500008c
:10006800be050000be050000be050000be0500007c
:10007800be050000be050000be050000be0500006c
:10008800be050000be050000be050000be0500005c
:10009800be050000be050000be050000be0500004c
:1000a800be050000be050000be050000be0500003c
:1000b800be050000be050000be050000be0500002c
:1000c800be050000be050000be050000be0500001c
:1000d800be050000be050000be050000be0500000c
:1000e800be050000be050000be050000be050000fc
:0800f800be050000be0500007a
:020000040000fa
:10010800be050000be050000be050000be050000db
:10011800be050000be050000be050000be050000cb
:10012800be050000be050000be0500005602000026
:10013800be050000be050000be050000be050000ab
:10014800be050000be050000be050000be0500009b
:10015800be050000be050000be050000be0500008b
:10016800be050000be050000be050000be0500007b
:10017800be050000be050000be050000be0500006b
:10018800be050000be050000be050000be0500005b
:10019800be050000be050000be050000be0500004b
:1001a800be050000be050000be050000be0500003b
:1001b800be050000be050000be050000be0500002b
:1001c800be050000be050000be050000be0500001b
:1001d800be050000be050000be050000be0500000b
:1001e800be050000be050000be050000be050000fb
:0801f800be050000be05000079
:020000040000fa
:1004d000546800006520000063680000617200003d
:1004e0006163000074650000722000007365000005
:1004f0006e7400002077000061730000202200006d
:10050000000d00000a490000207300007570000013
:10051000706f000073650000206900007420000007
:10052000736800006f7500006c6400006e270000a7
:10053000742000006265000020610000207300004c
:100540007572000070720000697300006520000081
:100550007468000061740000207400006578000079
:10056000742000006f6600002074000068690000bd
:10057000730d00000a6c0000656e000067740000d7
:1005800068200000636100006e20000062650000ca
:1005900020730000746f000072650000642000008a
:1005a000696e0000207400006865000020500000a3
:1005b000494300002e200000204100006674000026
:1005c00065720000206100006c6c00002c200000af
:1005d000746800006520000050490000430d0000d1
:1005e0000a6d000069670000687400002077000051
:1005f000656c00006c2000006861000076650000fa
:1006000020700000726f00006469000067690000dc
:100610006f750000732000006d6500006d6f0000b5
:10062000727900002e0d00000a0000000d0a000083
:100630004e6f0000742000006f6e00006c790000a7
:100640002074000068610000742c00002074000019
:10065000686500007265000020610000726500009e
:10066000207300006576000065720000616c000078
:10067000206d000065730000736100006765000075
:1006800073200000737400006f7200006564000046
:100690002068000065720000652c00000d0a000053
:1006a000736500006c650000637400006162000007
:1006b0006c6500002064000065700000656e00003d
:1006c000646900006e670000206f00006e2000006b
:1006d000776800006174000020630000686100001a
:1006e0007261000063740000657200002068000001
:1006f00061700000706500006e73000020740000df
:100700006f200000626500000d0a0000707200009a
:1007100065730000736500006420000062790000ca
:100720002074000068650000207500006e730000f2
:10073000757300007065000063740000696e00004e
:100740006720000075730000657200002e0d000028
:100750000a0000000d0a0000546800006520000037
:100760006d610000696e0000206400006966000091
:1007700066690000637500006c7400007920000059
:100780007769000074680000207400006869000048
:100790007320000065780000657200006369000046
:1007a0007365000020690000732000007468000079
:1007b000696e00006b6900006e670000206f00002a
:1007c0006620000074680000696e00006773000016
:1007d0000d0a0000746f00002073000061790000b2
:1007e000207400006f200000666900006c6c00003f
:1007f00020750000702000006d6500006d6f000026
:10080000727900002e20000020490000206e0000b8
:100810006565000064200000746f00002074000013
:10082000686900006e6b0000206f00006620000009
:10083000736f00006d6500000d0a00006d6500001b
:10084000616e0000696e000067660000756c000054
:1008500020610000707000006c690000636100009e
:10086000746900006f6e000020770000686500006a
:1008700072650000206100006c6c000020740000b4
:10088000686900007320000074650000787400003f
:10089000206d00006967000068740000206200009d
:1008a00065200000696e000074650000726500003c
:1008b00073740000696e0000672e00000d0a0000ce
:1008c000000d00000a570000652000007468000059
:1008d00065200000706500006f7000006c6500000e
:1008e000206f000066200000746800006520000092
:1008f000556e00006974000065640000205300001c
:100900007461000074650000732c00002069000011
:100910006e2000006f72000064650000722000000d
:10092000746f0000206600006f7200006d200000f0
:10093000610d00000a6d00006f720000652000006c
:10094000706500007266000065630000742000009e
:10095000756e0000696f00006e2c000020650000bd
:1009600073740000616200006c690000736800002d
:10097000206a000075730000746900006365000060
:100980002c200000656e0000737500007265000089
:10099000206400006f6d0000657300007469000042
:1009a000630d00000a740000726100006e710000a7
:1009b000756900006c690000747900002c2000004b
:1009c000707200006f76000069640000652000000e
:1009d000666f00007220000074680000652000004f
:1009e000636f00006d6d00006f6e000020640000fa
:1009f00065660000656e0000736500002c20000035
:100a000073750000707000006f72000074200000a9
:100a100074680000650d00000a670000656e000044
:100a200065720000616c000020770000656c0000ba
:100a300066610000726500002c200000616e0000fd
:100a4000642000006f62000074610000696e0000a5
:100a50002074000068650000206200006c650000e2
:100a600073730000696e000067730000206f000060
:100a7000662000006c69000062650000727400006e
:100a800079200000666f0000720d00000a6f000000
:100a900075720000736500006c76000065730000dd
:100aa000206100006e640000206f0000757200007d
:100ab000207000006f730000746500007269000010
:100ac00074790000206400006f2000006865000059
:100ad0007265000062790000206f000072640000ff
:100ae000616900006e200000616e0000642000005b
:100af0006573000074610000626c0000697300009f
:100b0000680d00000a74000068690000732000008e
:100b1000636f00006e73000074690000747500005c
:100b2000746900006f6e0000206f000066200000f6
:100b30007468000065200000556e000069740000b4
:100b400065640000205300007461000074650000bb
:100b5000732000006f660000204100006d650000fa
:100b600072690000636100002e0d00000a000000a1
:080b7000220d00000a00000044
:020000040000fa
:040b78000000000079
:020000040000fa
:040b7c000000fe0077
:00000001FF
