:020000040000fa
:080000004401040000000000af
:020000040000fa
:100200000200fa00000000000000eb00000f780080
:10021000900020009e0f1000fbff3c001e007800a5
:10022000020007001e0fe800f9ff37000600fa0081
:10023000000f78000000eb00100798001e009000ef
:100240009e0f50000e003d000000eb0020079800bc
:10025000ae009000e0ff2300808f500004003c00bf
:100260002e0090000000e80020079800f8ff3700fb
:100270001e0090000000e80010079800efff370014
:100280000080fa00000006000001040000000000e9
:020000040000fa
:100008004a0100004a0100004a0100004a010000bc
:100018004a0100004a0100004a0100004a010000ac
:100028004a0100004a0100004a0100004a0100009c
:100038004a0100004a0100004a0100004a0100008c
:100048004a0100004a0100004a0100004a0100007c
:100058004a0100004a0100004a0100004a0100006c
:100068004a0100004a0100004a0100004a0100005c
:100078004a0100004a0100004a0100004a0100004c
:100088004a0100004a0100004a0100004a0100003c
:100098004a0100004a0100004a0100004a0100002c
:1000a8004a0100004a0100004a0100004a0100001c
:1000b8004a0100004a0100004a0100004a0100000c
:1000c8004a0100004a0100004a0100004a010000fc
:1000d8004a0100004a0100004a0100004a010000ec
:1000e8004a0100004a0100004a0100004a010000dc
:0800f8004a0100004a0100006a
:020000040000fa
:100108004a0100004a0100004a0100004a010000bb
:100118004a0100004a0100004a0100004a010000ab
:100128004a0100004a0100004a0100004a0100009b
:100138004a0100004a0100004a0100004a0100008b
:100148004a0100004a0100004a0100004a0100007b
:100158004a0100004a0100004a0100004a0100006b
:100168004a0100004a0100004a0100004a0100005b
:100178004a0100004a0100004a0100004a0100004b
:100188004a0100004a0100004a0100004a0100003b
:100198004a0100004a0100004a0100004a0100002b
:1001a8004a0100004a0100004a0100004a0100001b
:1001b8004a0100004a0100004a0100004a0100000b
:1001c8004a0100004a0100004a0100004a010000fb
:1001d8004a0100004a0100004a0100004a010000eb
:1001e8004a0100004a0100004a0100004a010000db
:0801f8004a0100004a01000069
:020000040000fa
:04029000000000006a
:020000040000fa
:040294000000fe0068
:00000001FF
