Pin, Pin Name, Pin Assignment
---, --------, --------------
7, AN5/QEB/IC8/CN7/RB5, A2D10bit-AN5  
9, OSC1/CLKI, Oscillator2-OSC1  
10, OSC2/CLKO/RC15, Oscillator2-OSC2  
17, PGD/EMUD/U1TX/SDO1/SCL/C1TX/RF3, UART1-U1TX  
18, PGC/EMUC/U1RX/SDI1/SDA/C1RX/RF2, UART1-U1RX  
23, PWM2H/RE3, IOPortE-RE3  
24, PWM2L/RE2, IOPortE-RE2  
25, PWM1H/RE1, IOPortE-RE1  
26, PWM1L/RE0, IOPortE-RE0  
