MPLAB ASM30 Listing:  pinStim.s 			page 1


   1              	; $Id:$
   2              	;		DSPic grab RA0 into circular buffer
   3              	;
   4              	            .equ        __30F2010, 1
   5              	            .include    "p30f2010.inc"
   1              	; p30F2010.inc  Standard Include/Header File, Version 3.9a
   2              	; (c) Copyright 2002 Microchip Technology, All rights reserved
   3              	
   6              	            .list       b=4
   7              	
   8              	;..............................................................................
   9              	; Configuration bits:
  10              	;..............................................................................
  11              	
  12              	            config      __FOSC, CSW_FSCM_OFF & XT_PLL8    ; Turn off clock 
  13              	                                                ; switching and fail-safe clock
  14              	                                                ; monitoring and use the External
  15              	                                                ; Clock as the system clock
  16              	
  17              				config		__FWDT, WDT_OFF			; Turn off Watchdog Timer
  18              	
  19              				config		__FBORPOR, PBOR_OFF & BORV_27 & PWRT_16 & MCLR_EN
  20              													; Set Brown-out Reset voltage and
  21              													; and set Power-up Timer to 16msecs
  22              	                                            
  23              				config		__FGS, CODE_PROT_OFF	; Set Code Protection Off for the 
  24              													; General Segment
  25              	
  26              	;..............................................................................
  27              	; Global Declarations:
  28              	;..............................................................................
  29              	
  30              				.global 	__reset					; The label for the first line of code. 
  31              	
  32              				.section	variables, bss, near
  33 0000 00 00       	value1:		.space		2						; Test variable
  34 0002 00 00       	pointer:	.space		2						; Address in buffer
  35                 	
  36                 				.section	.ybss, bss, ymemory
  37 0000 00 00 00 00 	y_input:	.space		128						; 2*64
  37      00 00 00 00 
  37      00 00 00 00 
  37      00 00 00 00 
  37      00 00 00 00 
  37      00 00 00 00 
  37      00 00 00 00 
  37      00 00 00 00 
  37      00 00 00 00 
  38                 	
  39                 	
  40                 	.text											; Start of Code section
  41              	__reset:
  42 000000  0F 00 20 				mov			#__SP_init, W15			; Initalize the Stack Pointer
  43 000002  00 00 20 				mov			#__SPLIM_init, W0		; Initialize the Stack Pointer Limit Register
  44 000004  00 00 88 				mov			W0, SPLIM
  45 000006  00 00 00 				nop									; Add NOP to follow SPLIM initialization
  46              	
MPLAB ASM30 Listing:  pinStim.s 			page 2


  47 000008  00 00 02 				call		analog_init				; Initialize A/D
  47         00 00 00 
  48 00000c  02 00 20 				mov			#0,W2					; Clear out test value
  49 00000e  02 00 88 				mov			W2,value1
  50              	loopR:
  51 000010  02 00 20 				mov			#y_input,W2				; Initialize result
  52 000012  02 00 88 				mov			W2,pointer				; pointer
  53              	
  54              	loop:
  55 000014  00 20 EC 				inc			value1					; Left over from earlier test
  56              	adloop:
  57 000016  00 00 AE 				btss		ADCON1,#DONE			; Loop until A/D
  58 000018  00 00 04 				goto		adloop					; conversion is done
  58         00 00 00 
  59 00001c  02 00 80 				mov			ADCBUF0,W2				; Pick up value from A/D
  60 00001e  04 00 80 				mov			pointer,W4				; and location to store
  61 000020  02 0A 78 				mov			W2,[W4]					; Now store the value
  62 000022  02 A0 EC 				inc2		pointer					; Point to next location
  63 000024  00 08 20 				mov			#y_input+128,W0			; See if it wrapped
  64 000026  02 80 BD 				subbr		pointer,WREG			;
  65 000028  00 00 3B 				bra			NN,loop					; Didn't wrap, do next
  66 00002a  00 00 37 				bra			loopR					; Reset to begin buffer
  67              	        
  68              	.end
